<?xml version="1.0" standalone="yes"?>
<svg xmlns="http://www.w3.org/2000/svg" width="1748" height="442">
<path style="fill:#000000; stroke:none;" d="M1540 38.5833C1528.55 41.4269 1513.99 59.1972 1509.92 69.9105C1507.8 75.5198 1510.66 81.9947 1505.77 86.6057C1495.91 95.9125 1481.71 85.084 1471 92.7894C1457.98 102.164 1449.39 118.798 1437.98 129.96C1430.05 137.731 1418.63 140.649 1409 145.782C1404.45 148.206 1400.7 152.569 1396 154.513C1387.01 158.229 1376.01 152.037 1366.99 155.623C1361.86 157.66 1355.69 165.967 1350 164.766C1340.49 162.759 1335.59 150.333 1325 150.163C1315.45 150.009 1308.32 159.721 1297.42 159.111C1290.14 158.703 1282.65 148.567 1276.04 150.786C1267.12 153.783 1268.01 166.903 1257 168.836C1249.21 170.203 1243.94 162.894 1236 163.019C1219.85 163.274 1205.12 170.75 1190 174.841C1179.9 177.572 1170.14 176.946 1161 183.105C1152.5 188.833 1151.52 198.206 1156 206.996C1161.5 217.79 1174.89 215.56 1180.99 225.043C1190.14 239.247 1182.67 249.537 1180.03 263.985C1178.49 272.438 1180.87 277.407 1175.36 285C1171.9 289.769 1167.48 298.174 1161 298.951C1155.31 299.633 1148.63 294.946 1144.75 291.215C1140.68 287.295 1138.75 281.82 1136 277C1129.61 265.783 1117.75 251.589 1118.13 238C1118.41 227.805 1124.54 206.235 1108 203.411C1102 202.386 1094.8 207.252 1089 208.482C1080.97 210.185 1073.15 207.256 1065 209.542C1055.37 212.242 1046.2 219.921 1037 222.115C1025.03 224.969 1010.44 220.144 998 222.329C991.577 223.457 985.899 231.083 979.714 230.822C974.214 230.59 968.299 226.915 963 225.428C954.83 223.136 946.219 223.283 938 220.791C930.73 218.586 924.361 213.899 917 212.042C909.392 210.124 899.847 207.649 892.004 208.048C888.589 208.221 885.192 211.466 881.961 210.84C870.024 208.524 866.234 193.273 850.911 196.978C819.364 204.606 789.763 220.838 761 236.619C755.322 239.734 750.291 243.759 746.505 249.04C743.885 252.695 741.114 258.659 735.96 258.924C728.812 259.293 720.34 255.478 712.83 255.096C707.484 254.824 701.667 257.492 696.41 255.844C690.084 253.861 685.829 247.486 679 245.44C672.263 243.422 664.079 245.73 658.04 243.546C651.344 241.125 647.773 234.842 640 233.471C628.328 231.413 622.24 242.707 613 247.08C605.625 250.57 591.89 249.183 583.576 249.247C574.349 249.317 560.852 243.762 553 239.077C548.045 236.121 542.933 230.776 537 230.148C515.082 227.83 501.247 265.026 479 258.351C459.255 252.427 449.799 227.414 432 217.367C423.286 212.447 416.8 218.845 408 218.981C399.928 219.105 392.22 212.791 386.326 207.702C379.732 202.009 382.007 194.098 378.095 187C372.54 176.922 363.115 174.945 354 169.456C349.019 166.456 343.163 161.572 337 161.805C329.892 162.074 324.303 169.462 317.985 172.189C308.573 176.253 300.995 182.708 292 187.33C278.976 194.023 263.692 199.503 252.004 208.532C241.38 216.74 240.17 226.75 226 230.96C214.202 234.465 203.425 215.901 194.996 209.069C186.88 202.491 176.821 196.342 169.514 189.181C147.951 168.049 120.491 119.19 86 147.465C81.2109 151.39 77.0397 155.98 73.4282 161C61.5958 177.446 52.3466 196.865 45.8611 216C43.2931 223.577 40.6581 235.438 44.4568 242.999C46.5511 247.168 50.7384 249.321 53.2585 253.09C55.7538 256.821 55.0732 261.169 59.1088 264.006C68.7042 270.752 81.9579 270.263 93 271.09C98.7461 271.521 103.406 275.003 109 275.789C114.335 276.539 119.598 274.844 125 275.714C137.458 277.719 151.344 284.393 162.999 289.225C167.702 291.174 170.889 295.298 175.015 298.163C193.879 311.265 208.983 328.434 228 341.492C269.244 369.813 320.446 385.51 370 390.834C404.595 394.551 436.095 397.571 470 389.585C490.052 384.862 507.091 371.786 528 369.285C539.829 367.871 549.619 372.538 561 372.956C582.25 373.736 603.747 372.564 625.001 373.053C630.824 373.187 636.22 375.744 642 375.956C648.469 376.194 654.773 373.983 661.24 373.721C667.746 373.456 674.576 374.997 681 373.468C686.307 372.204 690.395 367.534 696 367.475C708.746 367.338 723.281 373.184 736 375.246C746.589 376.963 757.445 374.692 768 376.21C786.369 378.851 804.286 385.042 823 386.823C829.633 387.454 836.367 385.179 843 385.179C852.013 385.179 860.926 387.612 870 387.254C881.75 386.79 893.242 383.181 905 383.019C947.105 382.436 988.941 380.97 1031 378.09C1041.39 377.378 1051.63 379.003 1062 377.827C1069.23 377.007 1075.75 373.055 1083 372.184C1089.78 371.37 1097.44 373.418 1103.99 371.146C1107.67 369.865 1109.58 365.955 1113.15 364.835C1123.09 361.707 1133.54 364.729 1144 359.766C1153.65 355.189 1157.77 350.655 1163.7 342C1165.84 338.872 1166.55 332.637 1171.06 332.576C1198.48 332.206 1222.63 345.899 1249 349.7C1268.22 352.47 1288.49 356.483 1307.83 358.406C1319.19 359.535 1330.76 358.101 1342 359.17C1355.71 360.475 1369.3 363.928 1383 364.91C1391.34 365.507 1398.07 360.339 1406.17 360.959C1413.62 361.529 1420.59 364.779 1428 365.24C1448.11 366.491 1468.93 364.013 1489.01 363.083C1524.09 361.457 1555.48 360.475 1588 344.742C1606.97 335.562 1625.46 325.883 1639.83 310C1646.97 302.112 1651.16 292.729 1657.44 284.289C1661.03 279.47 1666.26 276.2 1669.39 270.996C1676.38 259.35 1679.72 238.395 1677.79 225C1675.12 206.473 1655.62 188.675 1645.88 173.816C1640.62 165.786 1638.55 154.471 1632.35 147.228C1628.77 143.044 1623.55 144.853 1619 142.911C1613.02 140.359 1605.87 134.834 1601.61 129.957C1596.87 124.509 1593.88 117.771 1589.23 112.379C1580.9 102.727 1570 92.6846 1564.4 81C1560.55 72.9533 1561.92 63.4566 1558.55 55C1555.57 47.5023 1550.04 36.0882 1540 38.5833z"/>
<path style="fill:#ffffff; stroke:none;" d="M1540 43.7322C1530.6 46.9163 1518.02 61.7729 1514.73 71C1512.27 77.8844 1515.1 84.0992 1508.94 89.787C1498.19 99.7122 1484.84 89.2836 1474.04 96.4244C1461.04 105.02 1452.62 121.908 1441.9 132.91C1433.57 141.45 1421.21 144.224 1411 149.792C1406.14 152.444 1402.15 157.316 1397 159.258C1388.38 162.51 1378.61 157.312 1370 159.558C1362.26 161.577 1357.82 171.362 1349 169.592C1340.09 167.803 1334.33 154.786 1325 154.732C1316.13 154.681 1308.56 164.559 1298 163.906C1292.05 163.538 1281.49 154.483 1277.11 156.176C1273.49 157.572 1272.37 162.928 1270.29 165.816C1266.89 170.539 1261.66 172.918 1256 173.699C1248.09 174.791 1244.25 167.749 1237 167.387C1221.52 166.615 1205.52 175.497 1191 179.239C1181.76 181.62 1172.33 180.927 1164.04 186.549C1157.06 191.282 1156.14 200.352 1161.42 206.956C1167.78 214.916 1179.89 213.413 1185.18 223.039C1187.71 227.647 1190.99 236.831 1191.47 242C1191.96 247.234 1186.98 254.72 1185.63 260C1184.05 266.18 1185.74 271.518 1184.89 277.424C1183.69 285.721 1170.55 302.631 1162 303.732C1155.49 304.571 1147.67 299.885 1143.01 295.79C1137.09 290.581 1134.6 283.683 1130.85 277C1124.36 265.467 1114.93 253.816 1113.87 240.184C1113.28 232.451 1121.09 208.426 1105.91 208.319C1099.76 208.275 1093.15 212.479 1087 213.535C1081.75 214.438 1076.58 212.716 1071.29 213.229C1064.46 213.89 1057.39 217.3 1051 219.71C1046.53 221.395 1043.42 226.044 1038.99 227.231C1034.72 228.372 1029.2 226.334 1024.83 226.095C1016.76 225.653 1005.94 225.808 998 227.34C991.422 228.61 986.89 235.692 980 235.487C973.578 235.295 967.119 231.441 961 229.745C952.788 227.47 944.213 227.468 936 224.961C928.393 222.638 921.776 217.904 914 216.04C907.824 214.56 899.324 212.002 893 212.318C888.566 212.539 885.666 216.771 881.001 215.562C869.689 212.629 865.923 198.635 852 201.379C846.207 202.521 841.47 206.018 836 207.836C832.405 209.032 828.641 207.782 825 209.145C804.96 216.65 782.41 228.986 764 240.065C755.133 245.401 746.917 262.477 737 263.728C729.037 264.733 719.307 259.565 711 259.418C705.586 259.323 700.531 262.375 695 260.4C688.387 258.04 684.047 251.746 677 249.573C670.106 247.448 662.437 250.544 656.093 248.293C649.919 246.103 647.108 239.767 640 238.38C629.514 236.333 624.294 246.685 615.985 250.677C606.882 255.05 593.04 254.259 583 253.942C574.541 253.675 561.335 249.144 554 244.91C548.36 241.654 541.732 235.262 535 235.095C514.609 234.589 502.946 266.408 481 263.684C459.031 260.958 448.589 231.702 430 221.92C421.616 217.508 413.723 224.207 404.985 223.816C397.317 223.474 388.43 215.787 383.015 210.826C375.576 204.013 378.574 197.886 374.457 190C369.448 180.406 359.686 178.117 351 172.985C347.283 170.789 343.415 167.235 339 166.641C331.711 165.661 319.634 176.436 313 179.753C306.234 183.137 300.588 188.051 294 191.587C281.071 198.526 266.063 203.576 254.326 212.699C249.138 216.731 247.547 222.945 243.363 227.66C238.824 232.774 227.712 236.258 221 236.641C211.544 237.181 201.853 220.462 195 214.9C185.64 207.303 174.472 200.37 166.04 191.999C155.098 181.137 146.928 168.381 135.09 158.285C127.282 151.628 117.202 141.936 106 142.289C88.7863 142.833 75.5438 165.04 68.284 178C62.0733 189.087 55.8849 201.041 51.544 213C48.7948 220.574 44.7972 232.158 48.4336 240C50.4534 244.356 54.7342 247 57.2616 251C59.7241 254.897 59.5493 258.884 64.044 261.291C74.2297 266.746 85.5033 265.161 96.2855 267.073C100.981 267.905 104.422 271.613 109 272.542C113.627 273.48 118.31 270.957 123 271.326C132.877 272.103 141.863 276.647 151 280.05C187.36 293.594 210.89 326.253 244 346.078C289.565 373.361 341.083 382.269 393 388.715C418.391 391.868 443.524 392.108 468 385.366C486.682 380.22 503.561 367.822 523 365.289C536.433 363.539 547.989 367.43 561 368.24C587.823 369.91 615.293 370.215 642.001 371.275C647.808 371.505 653.26 369.3 659 369.039C665.491 368.745 672.727 370.6 679.039 369.127C684.788 367.784 688.902 363.366 695 363.044C706.805 362.42 719.335 367.924 731 369.725C743.291 371.623 756.14 369.368 768 371.326C786.24 374.336 804.349 380.672 823 382.116C830.802 382.72 838.561 380.637 846.424 380.865C855.289 381.122 863.761 383.618 872.714 382.772C883.467 381.755 894.145 378.53 904.985 378.315C945.537 377.51 985.552 376.388 1026 374.029C1036.3 373.427 1046.74 374.856 1057 373.829C1066.32 372.898 1074.76 368.449 1084 367.29C1089.76 366.568 1095.29 368.788 1101 367.057C1105.32 365.745 1107.56 361.447 1111.73 360.179C1115.63 358.992 1120.02 361.041 1124 360.787C1129.78 360.419 1136.77 358.033 1142 355.602C1150.92 351.455 1156.02 346.884 1160.63 338C1162.47 334.459 1161.7 327.048 1167.04 326.912C1195.11 326.197 1220.99 340.806 1248 344.7C1267.68 347.537 1288.21 351.708 1308 353.826C1321.29 355.249 1334.74 353.887 1348 355.17C1360.24 356.355 1372.53 360.243 1384.83 360.674C1392.31 360.936 1398.41 355.655 1406 356.093C1414.5 356.585 1422.49 360.419 1431 360.9C1442.22 361.534 1453.76 359.006 1465 359.002C1494.06 358.99 1525.75 360.251 1554 352.844C1581.37 345.666 1612.57 330.784 1632.82 310.935C1641.5 302.424 1645.86 291.827 1653.1 282.424C1656.76 277.68 1661.79 274.071 1665.03 269C1671.77 258.466 1676.06 236.236 1672.81 224C1667.91 205.587 1650.45 190.642 1641.07 175C1636.73 167.754 1634.72 156.34 1628.6 150.459C1625.65 147.631 1621.53 148.993 1618 147.597C1611.71 145.113 1604.95 139.577 1600.09 134.946C1594.07 129.209 1590.7 121.69 1585.4 115.424C1576.82 105.287 1565.16 94.308 1559.88 82C1556.98 75.2386 1558.2 67.9435 1555.91 61C1553.75 54.4364 1549.31 40.5789 1540 43.7322z"/>
</svg>
